pipelined/mipse.vcd
$date
	Thu Jul 12 21:00:26 2018
$end
$version
	Icarus Verilog
$end
$timescale
	1ps
$end
$scope module test_mipse $end
$scope module mipse_1 $end
$var wire 1 ! alu_opD $end
$var wire 32 " aluout [31:0] $end
$var wire 1 # branchD $end
$var wire 1 $ branchstall $end
$var wire 1 % btakenD $end
$var wire 1 & clk $end
$var wire 32 ' instr [31:0] $end
$var wire 1 ( lwstall $end
$var wire 1 ) memtoregD $end
$var wire 1 * memwrite $end
$var wire 1 + memwriteD $end
$var wire 1 , mult_opD $end
$var wire 32 - readdata [31:0] $end
$var wire 1 . regwriteD $end
$var wire 1 / rst_n $end
$var wire 1 0 stall $end
$var wire 32 1 writedata [31:0] $end
$var wire 5 2 writeregE [4:0] $end
$var wire 32 3 writedataE [31:0] $end
$var wire 1 4 sw_opD $end
$var wire 32 5 srcbE [31:0] $end
$var wire 32 6 srcaE [31:0] $end
$var wire 1 7 slti_opD $end
$var wire 32 8 signimmD [31:0] $end
$var wire 5 9 shamtD [4:0] $end
$var wire 5 : rtD [4:0] $end
$var wire 5 ; rsD [4:0] $end
$var wire 32 < resultW [31:0] $end
$var wire 5 = rdD [4:0] $end
$var wire 32 > rd2fD [31:0] $end
$var wire 32 ? rd2D [31:0] $end
$var wire 32 @ rd1fD [31:0] $end
$var wire 32 A rd1D [31:0] $end
$var wire 32 B pcplus4F [31:0] $end
$var wire 32 C pcbranchD [31:0] $end
$var wire 1 D ori_opD $end
$var wire 6 E opcodeD [5:0] $end
$var wire 16 F multoutE [15:0] $end
$var wire 1 G lw_opD $end
$var wire 1 H lui_opD $end
$var wire 16 I immD [15:0] $end
$var wire 6 J funcD [5:0] $end
$var wire 1 K bne_opD $end
$var wire 1 L beq_opD $end
$var wire 32 M aluoutE [31:0] $end
$var wire 6 N alucomD [5:0] $end
$var wire 1 O addi_opD $end
$var reg 6 P alucomE [5:0] $end
$var reg 32 Q aluoutM [31:0] $end
$var reg 32 R aluoutW [31:0] $end
$var reg 1 S alusrcE $end
$var reg 32 T instrD [31:0] $end
$var reg 1 U memtoregE $end
$var reg 1 V memtoregM $end
$var reg 1 W memtoregW $end
$var reg 1 X memwriteE $end
$var reg 1 Y memwriteM $end
$var reg 1 Z mult_opE $end
$var reg 32 [ pc [31:0] $end
$var reg 32 \ pcplus4D [31:0] $end
$var reg 32 ] rd1E [31:0] $end
$var reg 32 ^ rd2E [31:0] $end
$var reg 5 _ rdE [4:0] $end
$var reg 32 ` readdataW [31:0] $end
$var reg 1 a regdstE $end
$var reg 1 b regwriteE $end
$var reg 1 c regwriteM $end
$var reg 1 d regwriteW $end
$var reg 5 e rsE [4:0] $end
$var reg 5 f rtE [4:0] $end
$var reg 32 g signimmE [31:0] $end
$var reg 1 h slti_opE $end
$var reg 32 i writedataM [31:0] $end
$var reg 5 j writeregM [4:0] $end
$var reg 5 k writeregW [4:0] $end
$scope module alu_1 $end
$var wire 32 l a [31:0] $end
$var wire 32 m b [31:0] $end
$var wire 6 n s [5:0] $end
$var wire 1 o zero $end
$var wire 32 p y [31:0] $end
$upscope $end
$scope module rfile_1 $end
$var wire 5 q a1 [4:0] $end
$var wire 5 r a2 [4:0] $end
$var wire 5 s a3 [4:0] $end
$var wire 1 & clk $end
$var wire 32 t wd3 [31:0] $end
$var wire 1 d we3 $end
$var wire 32 u rd2 [31:0] $end
$var wire 32 v rd1 [31:0] $end
$upscope $end
$upscope $end
$upscope $end
$enddefinitions $end
#0
$dumpvars
b0 v
b0 u
bx t
bx s
b0 r
b0 q
bx p
xo
bx n
bx m
bx l
bx k
bx j
bx i
xh
bx g
b0 f
b0 e
0d
0c
0b
xa
bx `
b0 _
bx ^
bx ]
b0 \
b0 [
xZ
0Y
0X
xW
xV
0U
b0 T
xS
bx R
bx Q
bx P
0O
b0 N
bx M
0L
0K
b0 J
b0 I
0H
0G
bx F
b0 E
0D
b0 C
b100 B
b0 A
b0 @
b0 ?
b0 >
b0 =
bx <
b0 ;
b0 :
b0 9
b0 8
07
bx 6
bx 5
04
bx 3
b0 2
bx 1
00
0/
0.
bx -
0,
0+
0*
0)
0(
b100000000000010000000110010000 '
0&
0%
0$
0#
bx "
0!
$end
#5000
b0 F
b0 3
b0 6
b0 l
1o
b0 M
b0 p
b0 5
b0 m
0a
1S
b0 P
b0 n
b0 g
b0 ^
b0 ]
0Z
0h
b0 j
0V
1&
#10000
0&
#12000
1/
#15000
1.
b100000 N
b110010000 8
bx >
bx ?
bx u
b1100111 -
b110010000 I
1O
b1000 E
b1 :
b1 r
b110 9
b10000 J
b100000001000011111111111111100 '
b0 k
b0 s
0W
b0 1
b0 i
b0 "
b0 Q
b100000000000010000000110010000 T
b11001000100 C
b100 \
b1000 B
b100 [
1&
#20000
0&
#25000
b11111111111111111111111111111100 8
bx @
bx 3
bx A
bx v
0o
b110010000 M
b110010000 p
b110010000 5
b110010000 m
b0 <
b0 t
b1 2
b10001100001000110000000000000000 '
b1111111111111100 I
b1 ;
b1 q
b11111 =
b11111 9
b111100 J
b100000 P
b100000 n
b110010000 g
bx ^
b0 R
b1100111 `
1b
b1 f
b1100 B
b1000 [
b11111111111111111111111111111000 C
b1000 \
b100000001000011111111111111100 T
1&
#30000
0&
#35000
1.
b110010000 @
b0 8
b1111100111000000 F
b110010000 3
b110001100 M
b110001100 p
b110010000 6
b110010000 l
b111110110000000000000000 -
b11111111111111111111111111111100 5
b11111111111111111111111111111100 m
b0 I
1)
1G
0O
b100011 E
b11 :
b11 r
b0 =
b0 9
b0 J
b10001100001001000000000110010000 '
b1 j
bx 1
bx i
b110010000 "
b110010000 Q
b11111111111111111111111111111100 g
bx ]
b10001100001000110000000000000000 T
b1100 C
b1100 \
b10000 B
b1100 [
b11111 _
b1 e
1c
1&
#40000
0&
#45000
b110010000 8
b0 F
b0 5
b0 m
b110001100 @
b110001100 6
b110001100 l
bx 3
b1000011 -
b110010000 <
b110010000 t
b11 2
b100000110010000000100101 '
b110010000 I
b100 :
b100 r
b110 9
b10000 J
b0 g
b110010000 ]
b110010000 1
b110010000 i
b110001100 "
b110001100 Q
b1 k
b1 s
b110010000 R
b111110110000000000000000 `
1d
1U
b0 _
b11 f
b10100 B
b10000 [
b11001010000 C
b10000 \
b10001100001001000000000110010000 T
1&
#50000
b110010000 A
b110010000 v
0&
#55000
1.
b100101 N
b110001100 >
1!
bx @
b10000000100101 8
10
b110001100 6
b110001100 l
b110101011000000 F
b1100011100 M
b1100011100 p
bx A
bx v
1(
b110001100 <
b110001100 t
b110010000 5
b110010000 m
b10000000100101 I
0)
0G
b0 E
b100 ;
b100 q
b11 :
b11 r
b100 =
b0 9
b100101 J
b10101100001001000000001100100000 '
b100 2
b110001100 R
b1000011 `
b11 j
bx 1
bx i
1V
b110010000 g
b110001100 ]
b100000110010000000100101 T
b1000000010101000 C
b10100 \
b11000 B
b10100 [
b100 f
1&
#60000
0&
#65000
b1100011100 @
00
bx >
b1010010000000000000000 -
b1000011 <
b1000011 t
0(
b0 2
b100 j
b1100011100 "
b1100011100 Q
b11 k
b11 s
1W
0b
0U
b0 f
b0 e
1&
#70000
b1000011 >
b1000011 ?
b1000011 u
0&
#75000
0.
b1100100000 8
b100000 N
bx >
b0 F
b1000011 3
b1010010000000000000000 6
b1010010000000000000000 l
0!
b110001100 A
b110001100 v
bx ?
bx u
b110001100 @
b1010010000000000000000 <
b1010010000000000000000 t
b1010010000000001000011 M
b1010010000000001000011 p
b1000011 5
b1000011 m
b1100100000 I
1+
14
b101011 E
b1 ;
b1 q
b100 :
b100 r
b0 =
b1100 9
b100000 J
b10100001000001111111111111010 '
b100 2
b100 k
b100 s
b1100011100 R
b1010010000000000000000 `
b0 j
0V
1a
0S
b100101 P
b100101 n
b10000000100101 g
b1000011 ^
b1100011100 ]
b10101100001001000000001100100000 T
b110010011000 C
b11000 \
b11100 B
b11000 [
1b
b100 _
b11 f
b100 e
0c
1&
#80000
b1010010000000000000000 >
b1010010000000000000000 ?
b1010010000000000000000 u
0&
#85000
b111010 N
b1101010110000000 F
b110001100 6
b110001100 l
b11111111111111111111111111111010 8
1%
b0 >
b10010101100 M
b10010101100 p
b1010010000000001000011 3
1#
b0 ?
b0 u
b1100100000 5
b1100100000 m
bx -
b1100011100 <
b1100011100 t
b100000 '
b1111111111111010 I
0+
04
1K
b101 E
b0 :
b0 r
b11111 =
b11111 9
b111010 J
0a
1S
b100000 P
b100000 n
b1100100000 g
b1010010000000000000000 ^
b110001100 ]
b100 j
b1000011 1
b1000011 i
b1010010000000001000011 "
b1010010000000001000011 Q
b0 k
b0 s
0W
0d
1c
1X
0b
b0 _
b100 f
b1 e
b100000 B
b11100 [
b100 C
b11100 \
b10100001000001111111111111010 T
1&
#90000
0&
#95000
1.
b100000 N
1!
b100000 8
0%
b0 @
b1111011010111000 F
0#
b0 A
b0 v
b1010010000000001000011 <
b1010010000000001000011 t
b0 3
b11111111111111111111111111111010 M
b11111111111111111111111111111010 p
b11111111111111111111111111111010 5
b11111111111111111111111111111010 m
b100000 I
0K
b0 E
b0 ;
b0 q
b0 =
b0 9
b100000 J
b100000001000011111111111111100 '
b0 2
b100 k
b100 s
b1010010000000001000011 R
bx `
b1010010000000001000011 1
b1010010000000001000011 i
b10010101100 "
b10010101100 Q
b111010 P
b111010 n
b11111111111111111111111111111010 g
b0 ^
b100000 T
b10100000 C
b100000 \
b1000 B
b100 [
0X
b11111 _
b0 f
1*
1Y
0c
1d
1&
#100000
0&
#105000
1o
b11111111111111111111111111111100 8
b110001100 @
b110001100 >
b0 F
b0 6
b0 l
0!
b110001100 A
b110001100 v
b110001100 ?
b110001100 u
b0 M
b0 p
b0 5
b0 m
b10010101100 <
b10010101100 t
b10001100001000110000000000000000 '
b1111111111111100 I
1O
b1000 E
b1 ;
b1 q
b1 :
b1 r
b11111 =
b11111 9
b111100 J
1a
0S
b100000 P
b100000 n
b100000 g
b0 ]
b0 j
b0 1
b0 i
b11111111111111111111111111111010 "
b11111111111111111111111111111010 Q
b10010101100 R
bx -
0d
0*
0Y
1b
b0 _
b0 e
b1100 B
b1000 [
b11111111111111111111111111111000 C
b1000 \
b100000001000011111111111111100 T
1&
#110000
0&
#115000
1.
b1111100111010000 F
b0 8
b1000011 >
0o
b110001000 M
b110001000 p
b110001100 3
b110001100 6
b110001100 l
b1000011 ?
b1000011 u
b11111111111111111111111111111010 <
b11111111111111111111111111111010 t
b1100111 -
b11111111111111111111111111111100 5
b11111111111111111111111111111100 m
b0 I
1)
1G
0O
b100011 E
b11 :
b11 r
b0 =
b0 9
b0 J
b10001100001001000000000110010000 '
b1 2
b0 k
b0 s
b11111111111111111111111111111010 R
b0 "
b0 Q
0a
1S
b11111111111111111111111111111100 g
b110001100 ^
b110001100 ]
b10001100001000110000000000000000 T
b1100 C
b1100 \
b10000 B
b1100 [
b11111 _
b1 f
b1 e
1c
1&
#120000
0&
#125000
b110001000 @
b110010000 8
b1010010000000001000011 >
b0 F
b1000011 3
b110001000 6
b110001000 l
b1010010000000001000011 ?
b1010010000000001000011 u
b0 5
b0 m
b11111110 -
b0 <
b0 t
b11 2
b100000110010000000100101 '
b110010000 I
b100 :
b100 r
b110 9
b10000 J
b0 g
b1000011 ^
b1 j
b110001100 1
b110001100 i
b110001000 "
b110001000 Q
b0 R
b1100111 `
1d
1U
b0 _
b11 f
b10100 B
b10000 [
b11001010000 C
b10000 \
b10001100001001000000000110010000 T
1&
#130000
0&
#135000
1.
b100101 N
1!
b1010010000000001000011 @
b10000000100101 8
b110001000 >
10
b110010010000000 F
b1100011000 M
b1100011000 p
b1010010000000001000011 3
b1010010000000001000011 A
b1010010000000001000011 v
b1000011 ?
b1000011 u
1(
b110001000 <
b110001000 t
b110010000 5
b110010000 m
b10000000100101 I
0)
0G
b0 E
b100 ;
b100 q
b11 :
b11 r
b100 =
b0 9
b100101 J
b10101100001001000000001100100000 '
b100 2
b1 k
b1 s
b110001000 R
b11111110 `
b11 j
b1000011 1
b1000011 i
1V
b110010000 g
b1010010000000001000011 ^
b110001000 ]
b100000110010000000100101 T
b1000000010101000 C
b10100 \
b11000 B
b10100 [
b100 f
1&
#140000
0&
#145000
b1100011000 @
00
b1000011 >
b111110000000000000000000 -
b11111110 <
b11111110 t
0(
b0 2
b100 j
b1010010000000001000011 1
b1010010000000001000011 i
b1100011000 "
b1100011000 Q
b11 k
b11 s
1W
0b
0U
b0 f
b0 e
1&
#150000
b11111110 >
b11111110 ?
b11111110 u
0&
#155000
0.
b1100100000 8
b100000 N
b1010010000000001000011 >
b0 F
b11111110 3
b111110000000000000000000 6
b111110000000000000000000 l
0!
b110001000 A
b110001000 v
b1010010000000001000011 ?
b1010010000000001000011 u
b110001000 @
b111110000000000000000000 <
b111110000000000000000000 t
b111110000000000011111110 M
b111110000000000011111110 p
b11111110 5
b11111110 m
b1100100000 I
1+
14
b101011 E
b1 ;
b1 q
b100 :
b100 r
b0 =
b1100 9
b100000 J
b10100001000001111111111111010 '
b100 2
b100 k
b100 s
b1100011000 R
b111110000000000000000000 `
b0 j
0V
1a
0S
b100101 P
b100101 n
b10000000100101 g
b11111110 ^
b1100011000 ]
b10101100001001000000001100100000 T
b110010011000 C
b11000 \
b11100 B
b11000 [
1b
b100 _
b11 f
b100 e
0c
1&
#160000
b111110000000000000000000 >
b111110000000000000000000 ?
b111110000000000000000000 u
0&
#165000
b111010 N
b1100100100000000 F
b110001000 6
b110001000 l
b11111111111111111111111111111010 8
1%
b0 >
b10010101000 M
b10010101000 p
b111110000000000011111110 3
1#
b0 ?
b0 u
b1100100000 5
b1100100000 m
b10000111 -
b1100011000 <
b1100011000 t
b100000 '
b1111111111111010 I
0+
04
1K
b101 E
b0 :
b0 r
b11111 =
b11111 9
b111010 J
0a
1S
b100000 P
b100000 n
b1100100000 g
b111110000000000000000000 ^
b110001000 ]
b100 j
b11111110 1
b11111110 i
b111110000000000011111110 "
b111110000000000011111110 Q
b0 k
b0 s
0W
0d
1c
1X
0b
b0 _
b100 f
b1 e
b100000 B
b11100 [
b100 C
b11100 \
b10100001000001111111111111010 T
1&
#170000
0&
#175000
1.
b100000 N
1!
b100000 8
0%
b0 @
b1111011011010000 F
0#
b0 A
b0 v
b111110000000000011111110 <
b111110000000000011111110 t
b0 3
bx -
b11111111111111111111111111111010 M
b11111111111111111111111111111010 p
b11111111111111111111111111111010 5
b11111111111111111111111111111010 m
b100000 I
0K
b0 E
b0 ;
b0 q
b0 =
b0 9
b100000 J
b100000001000011111111111111100 '
b0 2
b100 k
b100 s
b111110000000000011111110 R
b10000111 `
b111110000000000011111110 1
b111110000000000011111110 i
b10010101000 "
b10010101000 Q
b111010 P
b111010 n
b11111111111111111111111111111010 g
b0 ^
b100000 T
b10100000 C
b100000 \
b1000 B
b100 [
0X
b11111 _
b0 f
1*
1Y
0c
1d
1&
#180000
0&
#185000
1o
b11111111111111111111111111111100 8
b110001000 @
b110001000 >
b0 F
b0 6
b0 l
0!
b110001000 A
b110001000 v
b110001000 ?
b110001000 u
b0 M
b0 p
b0 5
b0 m
b10010101000 <
b10010101000 t
b10001100001000110000000000000000 '
b1111111111111100 I
1O
b1000 E
b1 ;
b1 q
b1 :
b1 r
b11111 =
b11111 9
b111100 J
1a
0S
b100000 P
b100000 n
b100000 g
b0 ]
b0 j
b0 1
b0 i
b11111111111111111111111111111010 "
b11111111111111111111111111111010 Q
b10010101000 R
bx `
bx -
0d
0*
0Y
1b
b0 _
b0 e
b1100 B
b1000 [
b11111111111111111111111111111000 C
b1000 \
b100000001000011111111111111100 T
1&
#190000
0&
#195000
1.
b1111100111100000 F
b0 8
b11111110 >
0o
b110000100 M
b110000100 p
b110001000 3
b110001000 6
b110001000 l
b11111110 ?
b11111110 u
b11111111111111111111111111111010 <
b11111111111111111111111111111010 t
b1100111 -
b11111111111111111111111111111100 5
b11111111111111111111111111111100 m
b0 I
1)
1G
0O
b100011 E
b11 :
b11 r
b0 =
b0 9
b0 J
b10001100001001000000000110010000 '
b1 2
b0 k
b0 s
b11111111111111111111111111111010 R
b0 "
b0 Q
0a
1S
b11111111111111111111111111111100 g
b110001000 ^
b110001000 ]
b10001100001000110000000000000000 T
b1100 C
b1100 \
b10000 B
b1100 [
b11111 _
b1 f
b1 e
1c
1&
#200000
0&
#205000
b110000100 @
b110010000 8
b111110000000000011111110 >
b0 F
b11111110 3
b110000100 6
b110000100 l
b111110000000000011111110 ?
b111110000000000011111110 u
b0 5
b0 m
b11010 -
b0 <
b0 t
b11 2
b100000110010000000100101 '
b110010000 I
b100 :
b100 r
b110 9
b10000 J
b0 g
b11111110 ^
b1 j
b110001000 1
b110001000 i
b110000100 "
b110000100 Q
b0 R
b1100111 `
1d
1U
b0 _
b11 f
b10100 B
b10000 [
b11001010000 C
b10000 \
b10001100001001000000000110010000 T
1&
#210000
0&
#215000
1.
b100101 N
1!
b111110000000000011111110 @
b10000000100101 8
b110000100 >
10
b101111001000000 F
b1100010100 M
b1100010100 p
b111110000000000011111110 3
b111110000000000011111110 A
b111110000000000011111110 v
b11111110 ?
b11111110 u
1(
b110000100 <
b110000100 t
b110010000 5
b110010000 m
b10000000100101 I
0)
0G
b0 E
b100 ;
b100 q
b11 :
b11 r
b100 =
b0 9
b100101 J
b10101100001001000000001100100000 '
b100 2
b1 k
b1 s
b110000100 R
b11010 `
b11 j
b11111110 1
b11111110 i
1V
b110010000 g
b111110000000000011111110 ^
b110000100 ]
b100000110010000000100101 T
b1000000010101000 C
b10100 \
b11000 B
b10100 [
b100 f
1&
#220000
0&
#225000
b1100010100 @
00
b11111110 >
b1000110000000000000000 -
b11010 <
b11010 t
0(
b0 2
b100 j
b111110000000000011111110 1
b111110000000000011111110 i
b1100010100 "
b1100010100 Q
b11 k
b11 s
1W
0b
0U
b0 f
b0 e
1&
#230000
b11010 >
b11010 ?
b11010 u
0&
#235000
0.
b1100100000 8
b100000 N
b111110000000000011111110 >
b0 F
b11010 3
b1000110000000000000000 6
b1000110000000000000000 l
0!
b110000100 A
b110000100 v
b111110000000000011111110 ?
b111110000000000011111110 u
b110000100 @
b1000110000000000000000 <
b1000110000000000000000 t
b1000110000000000011010 M
b1000110000000000011010 p
b11010 5
b11010 m
b1100100000 I
1+
14
b101011 E
b1 ;
b1 q
b100 :
b100 r
b0 =
b1100 9
b100000 J
b10100001000001111111111111010 '
b100 2
b100 k
b100 s
b1100010100 R
b1000110000000000000000 `
b0 j
0V
1a
0S
b100101 P
b100101 n
b10000000100101 g
b11010 ^
b1100010100 ]
b10101100001001000000001100100000 T
b110010011000 C
b11000 \
b11100 B
b11000 [
1b
b100 _
b11 f
b100 e
0c
1&
#240000
b1000110000000000000000 >
b1000110000000000000000 ?
b1000110000000000000000 u
0&
#245000
b111010 N
b1011110010000000 F
b110000100 6
b110000100 l
b11111111111111111111111111111010 8
1%
b0 >
b10010100100 M
b10010100100 p
b1000110000000000011010 3
1#
b0 ?
b0 u
b1100100000 5
b1100100000 m
bx -
b1100010100 <
b1100010100 t
b100000 '
b1111111111111010 I
0+
04
1K
b101 E
b0 :
b0 r
b11111 =
b11111 9
b111010 J
0a
1S
b100000 P
b100000 n
b1100100000 g
b1000110000000000000000 ^
b110000100 ]
b100 j
b11010 1
b11010 i
b1000110000000000011010 "
b1000110000000000011010 Q
b0 k
b0 s
0W
0d
1c
1X
0b
b0 _
b100 f
b1 e
b100000 B
b11100 [
b100 C
b11100 \
b10100001000001111111111111010 T
1&
#250000
0&
#255000
1.
b100000 N
1!
b100000 8
0%
b0 @
b1111011011101000 F
0#
b0 A
b0 v
b1000110000000000011010 <
b1000110000000000011010 t
b0 3
b11111111111111111111111111111010 M
b11111111111111111111111111111010 p
b11111111111111111111111111111010 5
b11111111111111111111111111111010 m
b100000 I
0K
b0 E
b0 ;
b0 q
b0 =
b0 9
b100000 J
b100000001000011111111111111100 '
b0 2
b100 k
b100 s
b1000110000000000011010 R
bx `
b1000110000000000011010 1
b1000110000000000011010 i
b10010100100 "
b10010100100 Q
b111010 P
b111010 n
b11111111111111111111111111111010 g
b0 ^
b100000 T
b10100000 C
b100000 \
b1000 B
b100 [
0X
b11111 _
b0 f
1*
1Y
0c
1d
1&
#260000
0&
#265000
1o
b11111111111111111111111111111100 8
b110000100 @
b110000100 >
b0 F
b0 6
b0 l
0!
b110000100 A
b110000100 v
b110000100 ?
b110000100 u
b0 M
b0 p
b0 5
b0 m
b10010100100 <
b10010100100 t
b10001100001000110000000000000000 '
b1111111111111100 I
1O
b1000 E
b1 ;
b1 q
b1 :
b1 r
b11111 =
b11111 9
b111100 J
1a
0S
b100000 P
b100000 n
b100000 g
b0 ]
b0 j
b0 1
b0 i
b11111111111111111111111111111010 "
b11111111111111111111111111111010 Q
b10010100100 R
bx -
0d
0*
0Y
1b
b0 _
b0 e
b1100 B
b1000 [
b11111111111111111111111111111000 C
b1000 \
b100000001000011111111111111100 T
1&
#270000
0&
#275000
1.
b1111100111110000 F
b0 8
b11010 >
0o
b110000000 M
b110000000 p
b110000100 3
b110000100 6
b110000100 l
b11010 ?
b11010 u
b11111111111111111111111111111010 <
b11111111111111111111111111111010 t
b1100111 -
b11111111111111111111111111111100 5
b11111111111111111111111111111100 m
b0 I
1)
1G
0O
b100011 E
b11 :
b11 r
b0 =
b0 9
b0 J
b10001100001001000000000110010000 '
b1 2
b0 k
b0 s
b11111111111111111111111111111010 R
b0 "
b0 Q
0a
1S
b11111111111111111111111111111100 g
b110000100 ^
b110000100 ]
b10001100001000110000000000000000 T
b1100 C
b1100 \
b10000 B
b1100 [
b11111 _
b1 f
b1 e
1c
1&
#280000
0&
#285000
b110000000 @
b110010000 8
b1000110000000000011010 >
b0 F
b11010 3
b110000000 6
b110000000 l
b1000110000000000011010 ?
b1000110000000000011010 u
b0 5
b0 m
b10 -
b0 <
b0 t
b11 2
b100000110010000000100101 '
b110010000 I
b100 :
b100 r
b110 9
b10000 J
b0 g
b11010 ^
b1 j
b110000100 1
b110000100 i
b110000000 "
b110000000 Q
b0 R
b1100111 `
1d
1U
b0 _
b11 f
b10100 B
b10000 [
b11001010000 C
b10000 \
b10001100001001000000000110010000 T
1&
#290000
0&
#295000
1.
b100101 N
1!
b1000110000000000011010 @
b10000000100101 8
b110000000 >
10
b101100000000000 F
b1100010000 M
b1100010000 p
b1000110000000000011010 3
b1000110000000000011010 A
b1000110000000000011010 v
b11010 ?
b11010 u
1(
b110000000 <
b110000000 t
b110010000 5
b110010000 m
b10000000100101 I
0)
0G
b0 E
b100 ;
b100 q
b11 :
b11 r
b100 =
b0 9
b100101 J
b10101100001001000000001100100000 '
b100 2
b1 k
b1 s
b110000000 R
b10 `
b11 j
b11010 1
b11010 i
1V
b110010000 g
b1000110000000000011010 ^
b110000000 ]
b100000110010000000100101 T
b1000000010101000 C
b10100 \
b11000 B
b10100 [
b100 f
1&
#300000
0&
#305000
b1100010000 @
00
b11010 >
b11111110000000000000000 -
b10 <
b10 t
0(
b0 2
b100 j
b1000110000000000011010 1
b1000110000000000011010 i
b1100010000 "
b1100010000 Q
b11 k
b11 s
1W
0b
0U
b0 f
b0 e
1&
#310000
b10 >
b10 ?
b10 u
0&
#315000
0.
b1100100000 8
b100000 N
b1000110000000000011010 >
b0 F
b10 3
b11111110000000000000000 6
b11111110000000000000000 l
0!
b110000000 A
b110000000 v
b1000110000000000011010 ?
b1000110000000000011010 u
b110000000 @
b11111110000000000000000 <
b11111110000000000000000 t
b11111110000000000000010 M
b11111110000000000000010 p
b10 5
b10 m
b1100100000 I
1+
14
b101011 E
b1 ;
b1 q
b100 :
b100 r
b0 =
b1100 9
b100000 J
b10100001000001111111111111010 '
b100 2
b100 k
b100 s
b1100010000 R
b11111110000000000000000 `
b0 j
0V
1a
0S
b100101 P
b100101 n
b10000000100101 g
b10 ^
b1100010000 ]
b10101100001001000000001100100000 T
b110010011000 C
b11000 \
b11100 B
b11000 [
1b
b100 _
b11 f
b100 e
0c
1&
#320000
b11111110000000000000000 >
b11111110000000000000000 ?
b11111110000000000000000 u
0&
#325000
b111010 N
b1011000000000000 F
b110000000 6
b110000000 l
b11111111111111111111111111111010 8
1%
b0 >
b10010100000 M
b10010100000 p
b11111110000000000000010 3
1#
b0 ?
b0 u
b1100100000 5
b1100100000 m
bx -
b1100010000 <
b1100010000 t
b100000 '
b1111111111111010 I
0+
04
1K
b101 E
b0 :
b0 r
b11111 =
b11111 9
b111010 J
0a
1S
b100000 P
b100000 n
b1100100000 g
b11111110000000000000000 ^
b110000000 ]
b100 j
b10 1
b10 i
b11111110000000000000010 "
b11111110000000000000010 Q
b0 k
b0 s
0W
0d
1c
1X
0b
b0 _
b100 f
b1 e
b100000 B
b11100 [
b100 C
b11100 \
b10100001000001111111111111010 T
1&
#330000
0&
#335000
1.
b100000 N
1!
b100000 8
0%
b0 @
b1111011100000000 F
0#
b0 A
b0 v
b11111110000000000000010 <
b11111110000000000000010 t
b0 3
b11111111111111111111111111111010 M
b11111111111111111111111111111010 p
b11111111111111111111111111111010 5
b11111111111111111111111111111010 m
b100000 I
0K
b0 E
b0 ;
b0 q
b0 =
b0 9
b100000 J
b100000001000011111111111111100 '
b0 2
b100 k
b100 s
b11111110000000000000010 R
bx `
b11111110000000000000010 1
b11111110000000000000010 i
b10010100000 "
b10010100000 Q
b111010 P
b111010 n
b11111111111111111111111111111010 g
b0 ^
b100000 T
b10100000 C
b100000 \
b1000 B
b100 [
0X
b11111 _
b0 f
1*
1Y
0c
1d
1&
#340000
0&
#345000
1o
b11111111111111111111111111111100 8
b110000000 @
b110000000 >
b0 F
b0 6
b0 l
0!
b110000000 A
b110000000 v
b110000000 ?
b110000000 u
b0 M
b0 p
b0 5
b0 m
b10010100000 <
b10010100000 t
b10001100001000110000000000000000 '
b1111111111111100 I
1O
b1000 E
b1 ;
b1 q
b1 :
b1 r
b11111 =
b11111 9
b111100 J
1a
0S
b100000 P
b100000 n
b100000 g
b0 ]
b0 j
b0 1
b0 i
b11111111111111111111111111111010 "
b11111111111111111111111111111010 Q
b10010100000 R
bx -
0d
0*
0Y
1b
b0 _
b0 e
b1100 B
b1000 [
b11111111111111111111111111111000 C
b1000 \
b100000001000011111111111111100 T
1&
#350000
0&
#355000
1.
b1111101000000000 F
b0 8
b10 >
0o
b101111100 M
b101111100 p
b110000000 3
b110000000 6
b110000000 l
b10 ?
b10 u
b11111111111111111111111111111010 <
b11111111111111111111111111111010 t
b1100111 -
b11111111111111111111111111111100 5
b11111111111111111111111111111100 m
b0 I
1)
1G
0O
b100011 E
b11 :
b11 r
b0 =
b0 9
b0 J
b10001100001001000000000110010000 '
b1 2
b0 k
b0 s
b11111111111111111111111111111010 R
b0 "
b0 Q
0a
1S
b11111111111111111111111111111100 g
b110000000 ^
b110000000 ]
b10001100001000110000000000000000 T
b1100 C
b1100 \
b10000 B
b1100 [
b11111 _
b1 f
b1 e
1c
1&
#360000
0&
#365000
b101111100 @
b110010000 8
b11111110000000000000010 >
b0 F
b10 3
b101111100 6
b101111100 l
b11111110000000000000010 ?
b11111110000000000000010 u
b0 5
b0 m
b1011100 -
b0 <
b0 t
b11 2
b100000110010000000100101 '
b110010000 I
b100 :
b100 r
b110 9
b10000 J
b0 g
b10 ^
b1 j
b110000000 1
b110000000 i
b101111100 "
b101111100 Q
b0 R
b1100111 `
1d
1U
b0 _
b11 f
b10100 B
b10000 [
b11001010000 C
b10000 \
b10001100001001000000000110010000 T
1&
#370000
0&
#375000
1.
b100101 N
1!
b11111110000000000000010 @
b10000000100101 8
b101111100 >
10
b101000111000000 F
b1100001100 M
b1100001100 p
b11111110000000000000010 3
b11111110000000000000010 A
b11111110000000000000010 v
b10 ?
b10 u
1(
b101111100 <
b101111100 t
b110010000 5
b110010000 m
b10000000100101 I
0)
0G
b0 E
b100 ;
b100 q
b11 :
b11 r
b100 =
b0 9
b100101 J
b10101100001001000000001100100000 '
b100 2
b1 k
b1 s
b101111100 R
b1011100 `
b11 j
b10 1
b10 i
1V
b110010000 g
b11111110000000000000010 ^
b101111100 ]
b100000110010000000100101 T
b1000000010101000 C
b10100 \
b11000 B
b10100 [
b100 f
1&
#380000
0&
#385000
b1100001100 @
00
b10 >
b111000000000000000000 -
b1011100 <
b1011100 t
0(
b0 2
b100 j
b11111110000000000000010 1
b11111110000000000000010 i
b1100001100 "
b1100001100 Q
b11 k
b11 s
1W
0b
0U
b0 f
b0 e
1&
#390000
b1011100 >
b1011100 ?
b1011100 u
0&
#395000
0.
b1100100000 8
b100000 N
b11111110000000000000010 >
b0 F
b1011100 3
b111000000000000000000 6
b111000000000000000000 l
0!
b101111100 A
b101111100 v
b11111110000000000000010 ?
b11111110000000000000010 u
b101111100 @
b111000000000000000000 <
b111000000000000000000 t
b111000000000001011100 M
b111000000000001011100 p
b1011100 5
b1011100 m
b1100100000 I
1+
14
b101011 E
b1 ;
b1 q
b100 :
b100 r
b0 =
b1100 9
b100000 J
b10100001000001111111111111010 '
b100 2
b100 k
b100 s
b1100001100 R
b111000000000000000000 `
b0 j
0V
1a
0S
b100101 P
b100101 n
b10000000100101 g
b1011100 ^
b1100001100 ]
b10101100001001000000001100100000 T
b110010011000 C
b11000 \
b11100 B
b11000 [
1b
b100 _
b11 f
b100 e
0c
1&
#400000
b111000000000000000000 >
b111000000000000000000 ?
b111000000000000000000 u
0&
